Energy(MeV), Incoherent(cm^2/g)
1.000E-03 1.435E-02 
1.500E-03 2.863E-02 
2.000E-03 4.418E-02 
3.000E-03 7.309E-02 
4.000E-03 9.586E-02 
5.000E-03 1.126E-01 
6.000E-03 1.248E-01 
8.000E-03 1.410E-01 
1.000E-02 1.513E-01 
1.500E-02 1.664E-01 
2.000E-02 1.741E-01 
3.000E-02 1.793E-01 
4.000E-02 1.788E-01 
5.000E-02 1.761E-01 
6.000E-02 1.727E-01 
8.000E-02 1.654E-01 
1.000E-01 1.583E-01 
1.500E-01 1.433E-01 
2.000E-01 1.316E-01 