8;0;;
9;49.52900471;;
10;343.7760549;;
11;1277.588789;;
12;2523.990522;;
13;4404.479582;;
14;9635.980596;;
15;16583.3771;;
16;32300.5773;;
17;50998.30486;;
18;67215.00905;;
19;85886.04992;;
20;103918.6023;;
21;123763.3266;;
22;149946.0992;;
23;177929.6405;;
24;201599.3856;;
25;224673.4471;;
26;243997.2354;;
27;263441.2228;;
28;279743.6935;;
29;296471.9749;;
30;308406.4791;;
31;320917.5222;;
32;329056.5384;;
33;337289.2853;;
34;342659.6015;;
35;347304.624;;
36;348575.9089;;
37;349533.4424;;
38;349176.9241;;
39;348669.6396;;
40;345556.6405;;
41;342633.1141;;
42;339118.7804;;
43;335777.6019;;
44;333167.8268;;
45;330152.6189;;
46;325183.6372;;
47;320188.168;;
48;314691.5429;;
49;309060.4503;;
50;302917.9938;;
51;296706.2639;;
52;291097.5793;;
53;285397.2132;;
54;280265.2462;;
55;275039.5675;;
56;402472.6805;;
57;530331.5852;;
58;639881.2707;;
59;749306.7154;;
60;518352.2649;;
61;286450.4887;;
62;255220.714;;
63;223791.2966;;
64;216903.1874;;
65;209589.2674;;
66;289121.3975;;
67;368834.8415;;
68;303482.3136;;
69;237001.1461;;
70;190745.8777;;
71;144250.6189;;
72;138702.8498;;
73;132817.4983;;
74;131942.2732;;
75;131444.1531;;
76;128460.1192;;
77;125098.1644;;
78;122516.0911;;
79;118618.5334;;
80;118129.9856;;
81;116114.6892;;
82;110024.999;;
83;104618.0063;;
84;102187.7047;;
85;99783.90009;;
86;97643.91715;;
87;95489.26745;;
88;92626.65653;;
89;89756.10506;;
90;88569.5763;;
91;87430.52956;;
92;85283.62118;;
93;83304.38457;;
94;80746.75907;;
95;78178.74066;;
96;75013.79117;;
97;71816.0454;;
98;70991.34767;;
99;70154.83399;;
100;66820.38175;;
101;63529.12818;;
102;63323.35694;;
103;63285.05826;;
104;59823.07338;;
105;56351.72018;;
106;53867.63726;;
107;51447.12144;;
108;49541.22819;;
109;47509.63329;;
110;45483.33209;;
111;43638.35434;;
112;43100.91573;;
113;42672.67627;;
114;40227.91663;;
115;37617.93047;;
116;36441.38906;;
117;35213.10126;;
118;33840.77596;;
119;32297.92807;;
120;29545.74013;;
121;26460.04435;;
122;25533.48084;;
123;24046.66031;;
124;23612.51051;;
125;23219.31099;;
126;20662.09343;;
127;18097.19384;;
128;1411.543321;;
129;16352.93869;;
130;358.9213256;;
131;12814.41337;;
132;5779.066023;;
133;5101.134463;;
134;4341.710462;;
135;3582.164266;;
136;2958.22076;;
137;2334.175388;;
138;1547.178611;;
139;760.0718198;;
140;0;;
141;0;;
